305109 357665 441
106610 813421 509
250573 851392 525
310241 327912 384
982325 701354 525
980735 214189 525
895621 402748 525
106307 457143 449
486134 497250 426
822413 278458 509
192150 351579 443
777104 865697 525
53279 249515 443
720839 841606 525
190426 948510 525
216134 92738 383
987948 342982 525
756651 720466 424
80276 199353 383
719704 650431 504
529785 833951 509
842270 84002 525
294600 757965 509
347314 345771 441
106987 460668 449
157469 80583 383
282786 310807 389
890391 685729 525
920645 53547 525
309330 270131 407
427562 863974 525
461998 12336 449
398708 500308 449
519716 981172 525
647241 588071 509
301134 905976 525
331983 476034 449
675122 128695 509
468372 241158 449
37788 433687 449
852043 102332 525
670296 733599 504
375089 811359 509
646313 905606 525
259947 826107 509
243169 426691 449
899316 422673 525
434483 141377 449
104774 490882 449
447009 288385 449
127417 651182 509
128191 722922 509
849226 939604 507
880804 758086 525
366818 525121 470
475041 55886 449
455927 214806 449
361255 230711 441
249722 493060 449
801253 738676 468
746949 586144 509
713247 938713 525
887487 137138 525
23168 643480 509
208275 593512 470
190833 712306 509
69452 636264 509
172592 880387 525
285581 40070 443
761260 415583 509
601724 735582 509
183961 337229 443
974166 101148 525
497608 920747 525
811752 571386 509
350912 262796 441
996192 880780 507
437954 478111 444
865482 304997 525
619162 365664 470
587823 696436 509
229216 45899 386
232199 333722 407
582953 870744 525
999085 749016 525
588058 608710 403
261895 7289 443
68443 949332 525
627478 246701 509
920173 330788 525
657749 195890 509
95553 738885 509
664150 373973 509
926371 545908 525
767083 610238 509
482314 367618 449
739595 761249 424
121959 327377 443
607715 649385 509
186394 15009 383
986493 975807 427
578917 393586 470
876434 380099 525
773426 440484 509
350885 436320 449
182486 320737 443
979060 239200 525
466188 257429 449
919544 929845 476
246233 369183 441
56534 826412 509
216335 658790 509
480456 296828 449
875683 985177 507
125863 963324 525
242395 871040 525
310613 885818 525
949116 442040 525
355386 996620 525
564212 368598 470
810312 78368 509
872792 984954 507
965228 489547 525
43769 117378 354
632376 449069 509
649704 456280 509
148324 246425 443
233428 853122 525
987076 70900 525
34840 654664 509
520561 815486 509
780389 838720 525
636919 523381 509
254319 80548 443
686756 60304 509
472311 6783 449
694660 362561 509
191741 587161 470
529397 906297 525
522473 433901 470
562159 343631 470
260633 730256 509
342922 972 443
359554 254536 441
684389 891167 525
203359 272625 443
972471 529035 525
637251 710028 504
662996 228440 509
972474 146390 525
862693 936427 476
553844 319783 470
58211 934563 525
261980 645562 509
200436 905975 525
475500 822139 509
871997 44516 525
250584 98824 443
424653 544508 470
114112 161728 383
281360 433409 449
826045 126429 509
977478 113421 525
411196 765127 509
969354 580206 525
221248 547973 470
425236 427509 356
664060 52157 509
48128 794267 509
485221 756704 509
798658 520452 509
669418 188820 509
958948 814518 525
24743 530591 470
205277 224037 386
84452 827984 509
517215 6783 470
279530 183202 443
367280 43323 443
604981 371362 470
64221 381723 443
597029 100215 470
482595 5031 449
655837 777411 504
327228 290307 384
231005 599526 470
453394 757687 509
579053 216937 470
612527 332081 470
518057 712026 509
789230 748198 468
55830 821550 509
227616 527349 470
777724 720837 468
252851 368223 441
304448 733131 509
68859 613270 470
626660 919368 525
727789 233819 509
536828 224501 470
85605 340363 443
442670 427802 400
249569 801772 509
402370 384022 436
90632 793314 509
477810 422477 444
967133 284982 525
644280 902783 525
438695 620012 470
730264 411303 509
23184 805864 509
141386 289958 443
636232 24031 509
437490 550801 470
416815 775985 509
289709 534678 470
462782 329136 449
185208 672572 509
562282 452827 470
968377 985266 458
180108 285171 443
656285 807036 504
959326 838479 507
490856 711983 509
417579 465926 444
189451 466483 449
478057 526779 470
591113 801755 509
53367 524415 470
900354 882686 445
868739 965931 507
153727 9337 375
551601 947901 525
475654 276566 449
346083 46612 443
997225 303609 525
924157 232613 525
534642 253749 470
536256 371002 470
289092 132071 443
84495 372881 443
79125 93591 333
218126 344709 443
796474 714027 468
28878 875033 525
905577 527195 525
977361 240626 525
811681 309826 509
